{
  "type": "service_account",
  "project_id": "eventiplex-public",
  "private_key_id": "61ece8fa861bbf43b378382c8c25032f5c4b4f16",
  "private_key": "-----BEGIN PRIVATE KEY-----\nMIIEvQIBADANBgkqhkiG9w0BAQEFAASCBKcwggSjAgEAAoIBAQC274Eancm+B1Nz\ny8c/fB6SqVvPZU7lm/0IW6PRpct3cUuxa4o5/HQZ+LuQmutb9xSEGdZF72XLwVYW\n6XVPsiLxA+nvxS/sIz4BNH9sBMH+yIbtRejEScXuFGtRzj5OJ9KXnNnZ5aCBKnA7\nFNk6FW+QSfHY/9YkrvXNpWcR+tFF+GWvgKrk09jKhJnuW/NyTFnKjuZ9fgY7yaaR\nH+O/2s/RU3ZGj9RIZkSelLErnUh9vcjzL8E6b9wSWsUN5pHInZLlb5nOdGmrjVyJ\n6os7gKeR7ZehC8Rni440oDjC1z+ct2MGArIbfGZeQgYCGIpM6k1k5xUkBY2fmkj5\nLLol62VHAgMBAAECggEABeqvRYY/mSI/zFPbdVObEKEFY5OfNd9R8Kfa2ctZ8TeL\nAiaH9nxA98tZk97Mrm5htlrPwfZ815xMQsBEvUwY5sOGalXWsbtkEt9ElQ84suD0\nTg8i1dsoze3/ahBBUKIWGTW11erDE+YNWvJiivuG9eb6uWJw8YfLr7rtqxW0Rs60\nY+Szm2r6OatqW8I+P1nChfnrVTOYSMZTscg0T6JVqBy7YcvbrMcxPQfdVbW6mQ1y\n17O0bs4LG6uQw+p782e9vD7HuixEBkRtXj1cFE4ih3PYOeTej/crzcDL5o6otJVO\nrudmLpMGD00N5yDsohySfRTt5PLvNet0HulIXFGWlQKBgQD3V5qUwXP+XFv6tXzD\nm5EFzU9IzlGQKT5uXGa3vwOUysaMVZpEBZnFYZjMnwQkY1bGBKITbWep9vFSbioS\nP5aL4j0oVwRU5fGFiI3s+yiDBJAJzBlFiOflheakKVZ4vaWDNAoVWG2kRblw/CRl\nexxPW+8Ti56Qe8NT+Rs5mrB03QKBgQC9VsMmbv7WwaUm33ifXd7EpxyIVNEex8hx\nsncvjBMBZVqmrD+4tXjhvW4OSgigaQfnjwFijYIklQlheJH/KsYk+KZF8Gi9VBDv\nSx75ea4XuSfFpkMy9kFP0yc9d/yi10BAd8V1zg/DWMEiU806lO6qbj8pKcMaTssD\nGPyXkPkecwKBgC+CGCLydYEp5FDngytfOh/PK6dkWa5C/cbc4K3ydpGh0TkrSBJA\nsSSEdoD3GiiTHBu00BzDKuIumHOozVPr+tKrheu1qxNTh2yKqhgWtdVUjwYSudft\nT/16Fq75ca6HXr8ww68N6SFgcxoMlEEZwHpNwkIS00YVP5NliaEq4THRAoGAYCH8\nRbhXhbyeWOVf/jKQF/LtRr8hymoPeMLvRuHtCGlopHWSiPsC3ELs7S5jwOZzD/wI\n7PwCVwag069/GTqjjkP9UEdnNrHHQ2g12t8QKJVm/zCSr/5eXORN6STRzfBSfCkT\nxeORF1MqBH7eFd9manw9b2331JSq+PCn12DRS8cCgYEA0/FrLPxekwAxdZy/Zngj\nQahq7MFbSS7AD0SYU6P6g2UCRt5h8jx7swAsp1zbfLH2kgbRxaYsK3TlhAfziaid\nFKbD+A/Sies8OLSgwy3K9kfsQqAFKQcF4/5MnsVOLYtH0ppGmbnhy2WdxFLa0BFw\nrWc8oEMZI4R9cc/IocG1AJY=\n-----END PRIVATE KEY-----\n",
  "client_email": "firebase-adminsdk-xoni5@eventiplex-public.iam.gserviceaccount.com",
  "client_id": "113175997700328127911",
  "auth_uri": "https://accounts.google.com/o/oauth2/auth",
  "token_uri": "https://accounts.google.com/o/oauth2/token",
  "auth_provider_x509_cert_url": "https://www.googleapis.com/oauth2/v1/certs",
  "client_x509_cert_url": "https://www.googleapis.com/robot/v1/metadata/x509/firebase-adminsdk-xoni5%40eventiplex-public.iam.gserviceaccount.com"
}
